l,c,k,maxc,maxd,costPL1,costPL2,costPL3,nb_added_arcsPL3,costHeur,timePL1,timePL2,timePL3,timeHeur
11,11,3,10,10,32.0,32.0,-1.0,-1,27.0,0.201,1.643,1.643,3.68
12,12,3,10,10,37.0,37.0,-1.0,-1,30.0,0.206,1.84,1.84,3.476
13,13,3,10,10,34.0,34.0,-1.0,-1,30.0,0.229,3.75,3.75,10.605
14,14,3,10,10,36.0,36.0,-1.0,-1,29.0,0.55,4.652,4.652,4.953
15,15,3,10,10,38.0,38.0,-1.0,-1,29.0,0.381,10.387,10.387,9.192
16,16,3,10,10,42.0,42.0,-1.0,-1,36.0,0.862,14.856,14.856,9.674
17,17,3,10,10,41.0,41.0,-1.0,-1,35.0,0.727,47.421,47.421,9.655
18,18,3,10,10,49.0,49.0,-1.0,-1,43.0,0.494,54.185,54.185,21.658
19,19,3,10,10,45.0,45.0,-1.0,-1,41.0,2.372,86.113,86.113,31.525
20,20,3,10,10,47.0,47.0,-1.0,-1,42.0,2.924,151.082,151.082,16.282
