%!PS-Adobe-3.0 EPSF-3.0
%%Title: ../../res/plots/plot_time_variation_of_maxd_20.eps
%%Creator: matplotlib version 3.0.2, http://matplotlib.org/
%%CreationDate: Mon Mar  4 19:30:02 2019
%%Orientation: portrait
%%BoundingBox: 75 223 536 568
%%EndComments
%%BeginProlog
/mpldict 8 dict def
mpldict begin
/m { moveto } bind def
/l { lineto } bind def
/r { rlineto } bind def
/c { curveto } bind def
/cl { closepath } bind def
/box {
m
1 index 0 r
0 exch r
neg 0 r
cl
} bind def
/clipbox {
box
clip
newpath
} bind def
%!PS-Adobe-3.0 Resource-Font
%%Title: DejaVu Sans
%%Copyright: Copyright (c) 2003 by Bitstream, Inc. All Rights Reserved. Copyright (c) 2006 by Tavmjong Bah. All Rights Reserved. DejaVu changes are in public domain 
%%Creator: Converted from TrueType to type 3 by PPR
25 dict begin
/_d{bind def}bind def
/_m{moveto}_d
/_l{lineto}_d
/_cl{closepath eofill}_d
/_c{curveto}_d
/_sc{7 -1 roll{setcachedevice}{pop pop pop pop pop pop}ifelse}_d
/_e{exec}_d
/FontName /DejaVuSans def
/PaintType 0 def
/FontMatrix[.001 0 0 .001 0 0]def
/FontBBox[-1021 -463 1793 1232]def
/FontType 3 def
/Encoding [ /space /comma /period /slash /zero /one /two /three /four /five /E /H /L /P /underscore /a /c /d /e /f /i /l /m /n /o /p /r /s /t /u /v /x ] def
/FontInfo 10 dict dup begin
/FamilyName (DejaVu Sans) def
/FullName (DejaVu Sans) def
/Notice (Copyright (c) 2003 by Bitstream, Inc. All Rights Reserved. Copyright (c) 2006 by Tavmjong Bah. All Rights Reserved. DejaVu changes are in public domain ) def
/Weight (Book) def
/Version (Version 2.35) def
/ItalicAngle 0.0 def
/isFixedPitch false def
/UnderlinePosition -130 def
/UnderlineThickness 90 def
end readonly def
/CharStrings 33 dict dup begin
/.notdef 0 def
/space{318 0 0 0 0 0 _sc
}_d
/comma{318 0 77 -115 220 124 _sc
117 124 _m
220 124 _l
220 40 _l
140 -115 _l
77 -115 _l
117 40 _l
117 124 _l
_cl}_d
/period{318 0 107 0 210 124 _sc
107 124 _m
210 124 _l
210 0 _l
107 0 _l
107 124 _l
_cl}_d
/slash{337 0 0 -92 337 729 _sc
254 729 _m
337 729 _l
83 -92 _l
0 -92 _l
254 729 _l
_cl}_d
/zero{636 0 66 -13 570 742 _sc
318 664 _m
267 664 229 639 203 589 _c
177 539 165 464 165 364 _c
165 264 177 189 203 139 _c
229 89 267 64 318 64 _c
369 64 407 89 433 139 _c
458 189 471 264 471 364 _c
471 464 458 539 433 589 _c
407 639 369 664 318 664 _c
318 742 _m
399 742 461 709 505 645 _c
548 580 570 486 570 364 _c
570 241 548 147 505 83 _c
461 19 399 -13 318 -13 _c
236 -13 173 19 130 83 _c
87 147 66 241 66 364 _c
66 486 87 580 130 645 _c
173 709 236 742 318 742 _c
_cl}_d
/one{636 0 110 0 544 729 _sc
124 83 _m
285 83 _l
285 639 _l
110 604 _l
110 694 _l
284 729 _l
383 729 _l
383 83 _l
544 83 _l
544 0 _l
124 0 _l
124 83 _l
_cl}_d
/two{{636 0 73 0 536 742 _sc
192 83 _m
536 83 _l
536 0 _l
73 0 _l
73 83 _l
110 121 161 173 226 239 _c
290 304 331 346 348 365 _c
380 400 402 430 414 455 _c
426 479 433 504 433 528 _c
433 566 419 598 392 622 _c
365 646 330 659 286 659 _c
255 659 222 653 188 643 _c
154 632 117 616 78 594 _c
78 694 _l
118 710 155 722 189 730 _c
223 738 255 742 284 742 _c
}_e{359 742 419 723 464 685 _c
509 647 532 597 532 534 _c
532 504 526 475 515 449 _c
504 422 484 390 454 354 _c
446 344 420 317 376 272 _c
332 227 271 164 192 83 _c
_cl}_e}_d
/three{{636 0 76 -13 556 742 _sc
406 393 _m
453 383 490 362 516 330 _c
542 298 556 258 556 212 _c
556 140 531 84 482 45 _c
432 6 362 -13 271 -13 _c
240 -13 208 -10 176 -4 _c
144 1 110 10 76 22 _c
76 117 _l
103 101 133 89 166 81 _c
198 73 232 69 268 69 _c
330 69 377 81 409 105 _c
441 129 458 165 458 212 _c
458 254 443 288 413 312 _c
383 336 341 349 287 349 _c
}_e{202 349 _l
202 430 _l
291 430 _l
339 430 376 439 402 459 _c
428 478 441 506 441 543 _c
441 580 427 609 401 629 _c
374 649 336 659 287 659 _c
260 659 231 656 200 650 _c
169 644 135 635 98 623 _c
98 711 _l
135 721 170 729 203 734 _c
235 739 266 742 296 742 _c
370 742 429 725 473 691 _c
517 657 539 611 539 553 _c
539 513 527 479 504 451 _c
481 423 448 403 406 393 _c
_cl}_e}_d
/four{636 0 49 0 580 729 _sc
378 643 _m
129 254 _l
378 254 _l
378 643 _l
352 729 _m
476 729 _l
476 254 _l
580 254 _l
580 172 _l
476 172 _l
476 0 _l
378 0 _l
378 172 _l
49 172 _l
49 267 _l
352 729 _l
_cl}_d
/five{{636 0 77 -13 549 729 _sc
108 729 _m
495 729 _l
495 646 _l
198 646 _l
198 467 _l
212 472 227 476 241 478 _c
255 480 270 482 284 482 _c
365 482 429 459 477 415 _c
525 370 549 310 549 234 _c
549 155 524 94 475 51 _c
426 8 357 -13 269 -13 _c
238 -13 207 -10 175 -6 _c
143 -1 111 6 77 17 _c
77 116 _l
106 100 136 88 168 80 _c
199 72 232 69 267 69 _c
}_e{323 69 368 83 401 113 _c
433 143 450 183 450 234 _c
450 284 433 324 401 354 _c
368 384 323 399 267 399 _c
241 399 214 396 188 390 _c
162 384 135 375 108 363 _c
108 729 _l
_cl}_e}_d
/E{632 0 98 0 568 729 _sc
98 729 _m
559 729 _l
559 646 _l
197 646 _l
197 430 _l
544 430 _l
544 347 _l
197 347 _l
197 83 _l
568 83 _l
568 0 _l
98 0 _l
98 729 _l
_cl}_d
/H{752 0 98 0 654 729 _sc
98 729 _m
197 729 _l
197 430 _l
555 430 _l
555 729 _l
654 729 _l
654 0 _l
555 0 _l
555 347 _l
197 347 _l
197 0 _l
98 0 _l
98 729 _l
_cl}_d
/L{557 0 98 0 552 729 _sc
98 729 _m
197 729 _l
197 83 _l
552 83 _l
552 0 _l
98 0 _l
98 729 _l
_cl}_d
/P{603 0 98 0 569 729 _sc
197 648 _m
197 374 _l
321 374 _l
367 374 402 385 427 409 _c
452 433 465 467 465 511 _c
465 555 452 588 427 612 _c
402 636 367 648 321 648 _c
197 648 _l
98 729 _m
321 729 _l
402 729 464 710 506 673 _c
548 636 569 582 569 511 _c
569 439 548 384 506 348 _c
464 311 402 293 321 293 _c
197 293 _l
197 0 _l
98 0 _l
98 729 _l
_cl}_d
/underscore{500 0 -9 -235 510 -165 _sc
510 -165 _m
510 -235 _l
-9 -235 _l
-9 -165 _l
510 -165 _l
_cl}_d
/a{{613 0 60 -13 522 560 _sc
343 275 _m
270 275 220 266 192 250 _c
164 233 150 205 150 165 _c
150 133 160 107 181 89 _c
202 70 231 61 267 61 _c
317 61 357 78 387 114 _c
417 149 432 196 432 255 _c
432 275 _l
343 275 _l
522 312 _m
522 0 _l
432 0 _l
432 83 _l
411 49 385 25 355 10 _c
325 -5 287 -13 243 -13 _c
187 -13 142 2 109 33 _c
76 64 60 106 60 159 _c
}_e{60 220 80 266 122 298 _c
163 329 224 345 306 345 _c
432 345 _l
432 354 _l
432 395 418 427 391 450 _c
364 472 326 484 277 484 _c
245 484 215 480 185 472 _c
155 464 127 453 100 439 _c
100 522 _l
132 534 164 544 195 550 _c
226 556 256 560 286 560 _c
365 560 424 539 463 498 _c
502 457 522 395 522 312 _c
_cl}_e}_d
/c{{550 0 55 -13 488 560 _sc
488 526 _m
488 442 _l
462 456 437 466 411 473 _c
385 480 360 484 334 484 _c
276 484 230 465 198 428 _c
166 391 150 339 150 273 _c
150 206 166 154 198 117 _c
230 80 276 62 334 62 _c
360 62 385 65 411 72 _c
437 79 462 90 488 104 _c
488 21 _l
462 9 436 0 410 -5 _c
383 -10 354 -13 324 -13 _c
242 -13 176 12 128 64 _c
}_e{79 115 55 185 55 273 _c
55 362 79 432 128 483 _c
177 534 244 560 330 560 _c
358 560 385 557 411 551 _c
437 545 463 537 488 526 _c
_cl}_e}_d
/d{{635 0 55 -13 544 760 _sc
454 464 _m
454 760 _l
544 760 _l
544 0 _l
454 0 _l
454 82 _l
435 49 411 25 382 10 _c
353 -5 319 -13 279 -13 _c
213 -13 159 13 117 65 _c
75 117 55 187 55 273 _c
55 359 75 428 117 481 _c
159 533 213 560 279 560 _c
319 560 353 552 382 536 _c
411 520 435 496 454 464 _c
148 273 _m
148 207 161 155 188 117 _c
215 79 253 61 301 61 _c
}_e{348 61 385 79 413 117 _c
440 155 454 207 454 273 _c
454 339 440 390 413 428 _c
385 466 348 485 301 485 _c
253 485 215 466 188 428 _c
161 390 148 339 148 273 _c
_cl}_e}_d
/e{{615 0 55 -13 562 560 _sc
562 296 _m
562 252 _l
149 252 _l
153 190 171 142 205 110 _c
238 78 284 62 344 62 _c
378 62 412 66 444 74 _c
476 82 509 95 541 113 _c
541 28 _l
509 14 476 3 442 -3 _c
408 -9 373 -13 339 -13 _c
251 -13 182 12 131 62 _c
80 112 55 181 55 268 _c
55 357 79 428 127 481 _c
175 533 241 560 323 560 _c
397 560 455 536 498 489 _c
}_e{540 441 562 377 562 296 _c
472 322 _m
471 371 457 410 431 440 _c
404 469 368 484 324 484 _c
274 484 234 469 204 441 _c
174 413 156 373 152 322 _c
472 322 _l
_cl}_e}_d
/f{352 0 23 0 371 760 _sc
371 760 _m
371 685 _l
285 685 _l
253 685 230 678 218 665 _c
205 652 199 629 199 595 _c
199 547 _l
347 547 _l
347 477 _l
199 477 _l
199 0 _l
109 0 _l
109 477 _l
23 477 _l
23 547 _l
109 547 _l
109 585 _l
109 645 123 690 151 718 _c
179 746 224 760 286 760 _c
371 760 _l
_cl}_d
/i{278 0 94 0 184 760 _sc
94 547 _m
184 547 _l
184 0 _l
94 0 _l
94 547 _l
94 760 _m
184 760 _l
184 646 _l
94 646 _l
94 760 _l
_cl}_d
/l{278 0 94 0 184 760 _sc
94 760 _m
184 760 _l
184 0 _l
94 0 _l
94 760 _l
_cl}_d
/m{{974 0 91 0 889 560 _sc
520 442 _m
542 482 569 511 600 531 _c
631 550 668 560 711 560 _c
767 560 811 540 842 500 _c
873 460 889 403 889 330 _c
889 0 _l
799 0 _l
799 327 _l
799 379 789 418 771 444 _c
752 469 724 482 686 482 _c
639 482 602 466 575 435 _c
548 404 535 362 535 309 _c
535 0 _l
445 0 _l
445 327 _l
445 379 435 418 417 444 _c
398 469 369 482 331 482 _c
}_e{285 482 248 466 221 435 _c
194 404 181 362 181 309 _c
181 0 _l
91 0 _l
91 547 _l
181 547 _l
181 462 _l
201 495 226 520 255 536 _c
283 552 317 560 357 560 _c
397 560 430 550 458 530 _c
486 510 506 480 520 442 _c
_cl}_e}_d
/n{634 0 91 0 549 560 _sc
549 330 _m
549 0 _l
459 0 _l
459 327 _l
459 379 448 417 428 443 _c
408 469 378 482 338 482 _c
289 482 251 466 223 435 _c
195 404 181 362 181 309 _c
181 0 _l
91 0 _l
91 547 _l
181 547 _l
181 462 _l
202 494 227 519 257 535 _c
286 551 320 560 358 560 _c
420 560 468 540 500 501 _c
532 462 549 405 549 330 _c
_cl}_d
/o{612 0 55 -13 557 560 _sc
306 484 _m
258 484 220 465 192 427 _c
164 389 150 338 150 273 _c
150 207 163 156 191 118 _c
219 80 257 62 306 62 _c
354 62 392 80 420 118 _c
448 156 462 207 462 273 _c
462 337 448 389 420 427 _c
392 465 354 484 306 484 _c
306 560 _m
384 560 445 534 490 484 _c
534 433 557 363 557 273 _c
557 183 534 113 490 63 _c
445 12 384 -13 306 -13 _c
227 -13 165 12 121 63 _c
77 113 55 183 55 273 _c
55 363 77 433 121 484 _c
165 534 227 560 306 560 _c
_cl}_d
/p{{635 0 91 -207 580 560 _sc
181 82 _m
181 -207 _l
91 -207 _l
91 547 _l
181 547 _l
181 464 _l
199 496 223 520 252 536 _c
281 552 316 560 356 560 _c
422 560 476 533 518 481 _c
559 428 580 359 580 273 _c
580 187 559 117 518 65 _c
476 13 422 -13 356 -13 _c
316 -13 281 -5 252 10 _c
223 25 199 49 181 82 _c
487 273 _m
487 339 473 390 446 428 _c
418 466 381 485 334 485 _c
}_e{286 485 249 466 222 428 _c
194 390 181 339 181 273 _c
181 207 194 155 222 117 _c
249 79 286 61 334 61 _c
381 61 418 79 446 117 _c
473 155 487 207 487 273 _c
_cl}_e}_d
/r{411 0 91 0 411 560 _sc
411 463 _m
401 469 390 473 378 476 _c
366 478 353 480 339 480 _c
288 480 249 463 222 430 _c
194 397 181 350 181 288 _c
181 0 _l
91 0 _l
91 547 _l
181 547 _l
181 462 _l
199 495 224 520 254 536 _c
284 552 321 560 365 560 _c
371 560 378 559 386 559 _c
393 558 401 557 411 555 _c
411 463 _l
_cl}_d
/s{{521 0 54 -13 472 560 _sc
443 531 _m
443 446 _l
417 458 391 468 364 475 _c
336 481 308 485 279 485 _c
234 485 200 478 178 464 _c
156 450 145 430 145 403 _c
145 382 153 366 169 354 _c
185 342 217 330 265 320 _c
296 313 _l
360 299 405 279 432 255 _c
458 230 472 195 472 151 _c
472 100 452 60 412 31 _c
372 1 316 -13 246 -13 _c
216 -13 186 -10 154 -5 _c
}_e{122 0 89 8 54 20 _c
54 113 _l
87 95 120 82 152 74 _c
184 65 216 61 248 61 _c
290 61 323 68 346 82 _c
368 96 380 117 380 144 _c
380 168 371 187 355 200 _c
339 213 303 226 247 238 _c
216 245 _l
160 257 119 275 95 299 _c
70 323 58 356 58 399 _c
58 450 76 490 112 518 _c
148 546 200 560 268 560 _c
301 560 332 557 362 552 _c
391 547 418 540 443 531 _c
}_e{_cl}_e}_d
/t{392 0 27 0 368 702 _sc
183 702 _m
183 547 _l
368 547 _l
368 477 _l
183 477 _l
183 180 _l
183 135 189 106 201 94 _c
213 81 238 75 276 75 _c
368 75 _l
368 0 _l
276 0 _l
206 0 158 13 132 39 _c
106 65 93 112 93 180 _c
93 477 _l
27 477 _l
27 547 _l
93 547 _l
93 702 _l
183 702 _l
_cl}_d
/u{634 0 85 -13 543 560 _sc
85 216 _m
85 547 _l
175 547 _l
175 219 _l
175 167 185 129 205 103 _c
225 77 255 64 296 64 _c
344 64 383 79 411 110 _c
439 141 453 183 453 237 _c
453 547 _l
543 547 _l
543 0 _l
453 0 _l
453 84 _l
431 50 405 26 377 10 _c
348 -5 315 -13 277 -13 _c
214 -13 166 6 134 45 _c
101 83 85 140 85 216 _c
311 560 _m
311 560 _l
_cl}_d
/v{592 0 30 0 562 547 _sc
30 547 _m
125 547 _l
296 88 _l
467 547 _l
562 547 _l
357 0 _l
235 0 _l
30 547 _l
_cl}_d
/x{592 0 29 0 559 547 _sc
549 547 _m
351 281 _l
559 0 _l
453 0 _l
294 215 _l
135 0 _l
29 0 _l
241 286 _l
47 547 _l
153 547 _l
298 352 _l
443 547 _l
549 547 _l
_cl}_d
end readonly def

/BuildGlyph
 {exch begin
 CharStrings exch
 2 copy known not{pop /.notdef}if
 true 3 1 roll get exec
 end}_d

/BuildChar {
 1 index /Encoding get exch get
 1 index /BuildGlyph get exec
}_d

FontName currentdict end definefont pop
end
%%EndProlog
mpldict begin
75.6 223.2 translate
460.8 345.6 0 0 clipbox
gsave
0 0 m
460.8 0 l
460.8 345.6 l
0 345.6 l
cl
1.000 setgray
fill
grestore
gsave
57.6 38.016 m
414.72 38.016 l
414.72 304.128 l
57.6 304.128 l
cl
1.000 setgray
fill
grestore
0.800 setlinewidth
1 setlinejoin
0 setlinecap
[] 0 setdash
0.000 setgray
gsave
/o {
gsave
newpath
translate
0.8 setlinewidth
1 setlinejoin
0 setlinecap
0 0 m
0 -3.5 l

gsave
0.000 setgray
fill
grestore
stroke
grestore
} bind def
99.4633 38.016 o
grestore
/DejaVuSans findfont
10.000 scalefont
setfont
gsave
93.103974 23.422250 translate
0.000000 rotate
0.000000 0.000000 m /one glyphshow
6.362305 0.000000 m /five glyphshow
grestore
gsave
/o {
gsave
newpath
translate
0.8 setlinewidth
1 setlinejoin
0 setlinecap
0 0 m
0 -3.5 l

gsave
0.000 setgray
fill
grestore
stroke
grestore
} bind def
142.181 38.016 o
grestore
gsave
135.821678 23.422250 translate
0.000000 rotate
0.000000 0.000000 m /two glyphshow
6.362305 0.000000 m /zero glyphshow
grestore
gsave
/o {
gsave
newpath
translate
0.8 setlinewidth
1 setlinejoin
0 setlinecap
0 0 m
0 -3.5 l

gsave
0.000 setgray
fill
grestore
stroke
grestore
} bind def
184.899 38.016 o
grestore
gsave
178.539381 23.422250 translate
0.000000 rotate
0.000000 0.000000 m /two glyphshow
6.362305 0.000000 m /five glyphshow
grestore
gsave
/o {
gsave
newpath
translate
0.8 setlinewidth
1 setlinejoin
0 setlinecap
0 0 m
0 -3.5 l

gsave
0.000 setgray
fill
grestore
stroke
grestore
} bind def
227.616 38.016 o
grestore
gsave
221.257084 23.422250 translate
0.000000 rotate
0.000000 0.000000 m /three glyphshow
6.362305 0.000000 m /zero glyphshow
grestore
gsave
/o {
gsave
newpath
translate
0.8 setlinewidth
1 setlinejoin
0 setlinecap
0 0 m
0 -3.5 l

gsave
0.000 setgray
fill
grestore
stroke
grestore
} bind def
270.334 38.016 o
grestore
gsave
263.974788 23.422250 translate
0.000000 rotate
0.000000 0.000000 m /three glyphshow
6.362305 0.000000 m /five glyphshow
grestore
gsave
/o {
gsave
newpath
translate
0.8 setlinewidth
1 setlinejoin
0 setlinecap
0 0 m
0 -3.5 l

gsave
0.000 setgray
fill
grestore
stroke
grestore
} bind def
313.052 38.016 o
grestore
gsave
306.692491 23.422250 translate
0.000000 rotate
0.000000 0.000000 m /four glyphshow
6.362305 0.000000 m /zero glyphshow
grestore
gsave
/o {
gsave
newpath
translate
0.8 setlinewidth
1 setlinejoin
0 setlinecap
0 0 m
0 -3.5 l

gsave
0.000 setgray
fill
grestore
stroke
grestore
} bind def
355.77 38.016 o
grestore
gsave
349.410194 23.422250 translate
0.000000 rotate
0.000000 0.000000 m /four glyphshow
6.362305 0.000000 m /five glyphshow
grestore
gsave
/o {
gsave
newpath
translate
0.8 setlinewidth
1 setlinejoin
0 setlinecap
0 0 m
0 -3.5 l

gsave
0.000 setgray
fill
grestore
stroke
grestore
} bind def
398.487 38.016 o
grestore
gsave
392.127898 23.422250 translate
0.000000 rotate
0.000000 0.000000 m /five glyphshow
6.362305 0.000000 m /zero glyphshow
grestore
gsave
222.089687 9.750375 translate
0.000000 rotate
0.000000 0.000000 m /m glyphshow
9.741211 0.000000 m /a glyphshow
15.869141 0.000000 m /x glyphshow
21.787109 0.000000 m /d glyphshow
grestore
gsave
/o {
gsave
newpath
translate
0.8 setlinewidth
1 setlinejoin
0 setlinecap
0 0 m
-3.5 0 l

gsave
0.000 setgray
fill
grestore
stroke
grestore
} bind def
57.6 38.6712 o
grestore
gsave
34.693750 34.874284 translate
0.000000 rotate
0.000000 0.000000 m /zero glyphshow
6.362305 0.000000 m /period glyphshow
9.541016 0.000000 m /zero glyphshow
grestore
gsave
/o {
gsave
newpath
translate
0.8 setlinewidth
1 setlinejoin
0 setlinecap
0 0 m
-3.5 0 l

gsave
0.000 setgray
fill
grestore
stroke
grestore
} bind def
57.6 87.5636 o
grestore
gsave
34.693750 83.766766 translate
0.000000 rotate
0.000000 0.000000 m /zero glyphshow
6.362305 0.000000 m /period glyphshow
9.541016 0.000000 m /five glyphshow
grestore
gsave
/o {
gsave
newpath
translate
0.8 setlinewidth
1 setlinejoin
0 setlinecap
0 0 m
-3.5 0 l

gsave
0.000 setgray
fill
grestore
stroke
grestore
} bind def
57.6 136.456 o
grestore
gsave
34.693750 132.659248 translate
0.000000 rotate
0.000000 0.000000 m /one glyphshow
6.362305 0.000000 m /period glyphshow
9.541016 0.000000 m /zero glyphshow
grestore
gsave
/o {
gsave
newpath
translate
0.8 setlinewidth
1 setlinejoin
0 setlinecap
0 0 m
-3.5 0 l

gsave
0.000 setgray
fill
grestore
stroke
grestore
} bind def
57.6 185.349 o
grestore
gsave
34.693750 181.551730 translate
0.000000 rotate
0.000000 0.000000 m /one glyphshow
6.362305 0.000000 m /period glyphshow
9.541016 0.000000 m /five glyphshow
grestore
gsave
/o {
gsave
newpath
translate
0.8 setlinewidth
1 setlinejoin
0 setlinecap
0 0 m
-3.5 0 l

gsave
0.000 setgray
fill
grestore
stroke
grestore
} bind def
57.6 234.241 o
grestore
gsave
34.693750 230.444211 translate
0.000000 rotate
0.000000 0.000000 m /two glyphshow
6.362305 0.000000 m /period glyphshow
9.541016 0.000000 m /zero glyphshow
grestore
gsave
/o {
gsave
newpath
translate
0.8 setlinewidth
1 setlinejoin
0 setlinecap
0 0 m
-3.5 0 l

gsave
0.000 setgray
fill
grestore
stroke
grestore
} bind def
57.6 283.134 o
grestore
gsave
34.693750 279.336693 translate
0.000000 rotate
0.000000 0.000000 m /two glyphshow
6.362305 0.000000 m /period glyphshow
9.541016 0.000000 m /five glyphshow
grestore
gsave
28.615625 132.087625 translate
90.000000 rotate
0.000000 0.000000 m /s glyphshow
5.209961 0.000000 m /i glyphshow
7.988281 0.000000 m /m glyphshow
17.729492 0.000000 m /u glyphshow
24.067383 0.000000 m /l glyphshow
26.845703 0.000000 m /a glyphshow
32.973633 0.000000 m /t glyphshow
36.894531 0.000000 m /i glyphshow
39.672852 0.000000 m /o glyphshow
45.791016 0.000000 m /n glyphshow
52.128906 0.000000 m /space glyphshow
55.307617 0.000000 m /t glyphshow
59.228516 0.000000 m /i glyphshow
62.006836 0.000000 m /m glyphshow
71.748047 0.000000 m /e glyphshow
grestore
1.500 setlinewidth
2 setlinecap
0.337 0.932 0.970 setrgbcolor
gsave
357.1 266.1 57.6 38.02 clipbox
73.832727 132.349154 m
90.919809 137.433973 l
108.00689 188.771078 l
125.093971 221.626826 l
142.181053 220.160052 l
159.268134 252.135735 l
176.355215 130.980165 l
193.442297 193.953681 l
210.529378 195.616026 l
227.616459 212.141685 l
244.703541 292.032 l
261.790622 160.511224 l
278.877703 191.215703 l
295.964785 220.551192 l
313.051866 253.406939 l
330.138947 220.453407 l
347.226029 161.586859 l
364.31311 178.405872 l
381.400191 148.581458 l
398.487273 146.332404 l
stroke
grestore
0.177 0.480 0.637 setrgbcolor
gsave
357.1 266.1 57.6 38.02 clipbox
73.832727 50.112 m
90.919809 59.988281 l
108.00689 50.69871 l
125.093971 52.263269 l
142.181053 57.739227 l
159.268134 57.543657 l
176.355215 57.152517 l
193.442297 52.556624 l
210.529378 65.464239 l
227.616459 71.429122 l
244.703541 54.218968 l
261.790622 67.908863 l
278.877703 64.29082 l
295.964785 56.565808 l
313.051866 70.646842 l
330.138947 64.87753 l
347.226029 60.770561 l
364.31311 88.737061 l
381.400191 91.963964 l
398.487273 86.292437 l
stroke
grestore
0.137 0.172 0.777 setrgbcolor
gsave
357.1 266.1 57.6 38.02 clipbox
73.832727 169.214086 m
90.919809 142.714361 l
108.00689 137.531757 l
125.093971 122.668443 l
142.181053 101.546891 l
159.268134 139.291887 l
176.355215 124.037432 l
193.442297 135.184918 l
210.529378 96.755428 l
227.616459 147.212469 l
244.703541 203.047683 l
261.790622 147.408039 l
278.877703 120.321604 l
295.964785 144.08335 l
313.051866 154.155201 l
330.138947 147.994749 l
347.226029 148.581458 l
364.31311 186.815379 l
381.400191 123.548508 l
398.487273 166.476107 l
stroke
grestore
0.800 setlinewidth
0 setlinejoin
[] 0 setdash
0.000 setgray
gsave
57.6 38.016 m
57.6 304.128 l
stroke
grestore
gsave
414.72 38.016 m
414.72 304.128 l
stroke
grestore
gsave
57.6 38.016 m
414.72 38.016 l
stroke
grestore
gsave
57.6 304.128 m
414.72 304.128 l
stroke
grestore
/DejaVuSans findfont
12.000 scalefont
setfont
gsave
76.331875 310.128000 translate
0.000000 rotate
0.000000 0.000000 m /p glyphshow
7.617188 0.000000 m /l glyphshow
10.951172 0.000000 m /o glyphshow
18.292969 0.000000 m /t glyphshow
22.998047 0.000000 m /comma glyphshow
26.812500 0.000000 m /space glyphshow
30.626953 0.000000 m /period glyphshow
34.441406 0.000000 m /period glyphshow
38.255859 0.000000 m /slash glyphshow
42.298828 0.000000 m /period glyphshow
46.113281 0.000000 m /period glyphshow
49.927734 0.000000 m /slash glyphshow
53.970703 0.000000 m /r glyphshow
58.904297 0.000000 m /e glyphshow
66.287109 0.000000 m /s glyphshow
72.539062 0.000000 m /slash glyphshow
76.582031 0.000000 m /s glyphshow
82.833984 0.000000 m /i glyphshow
86.167969 0.000000 m /m glyphshow
97.857422 0.000000 m /u glyphshow
105.462891 0.000000 m /l glyphshow
108.796875 0.000000 m /a glyphshow
116.150391 0.000000 m /t glyphshow
120.855469 0.000000 m /e glyphshow
128.238281 0.000000 m /underscore glyphshow
134.238281 0.000000 m /p glyphshow
141.855469 0.000000 m /a glyphshow
149.208984 0.000000 m /r glyphshow
154.142578 0.000000 m /a glyphshow
161.496094 0.000000 m /m glyphshow
173.185547 0.000000 m /s glyphshow
179.437500 0.000000 m /underscore glyphshow
185.437500 0.000000 m /v glyphshow
192.539062 0.000000 m /a glyphshow
199.892578 0.000000 m /r glyphshow
204.826172 0.000000 m /i glyphshow
208.160156 0.000000 m /a glyphshow
215.513672 0.000000 m /t glyphshow
220.218750 0.000000 m /i glyphshow
223.552734 0.000000 m /o glyphshow
230.894531 0.000000 m /n glyphshow
238.500000 0.000000 m /underscore glyphshow
244.500000 0.000000 m /o glyphshow
251.841797 0.000000 m /f glyphshow
256.066406 0.000000 m /underscore glyphshow
262.066406 0.000000 m /m glyphshow
273.755859 0.000000 m /a glyphshow
281.109375 0.000000 m /x glyphshow
288.210938 0.000000 m /d glyphshow
295.828125 0.000000 m /period glyphshow
299.642578 0.000000 m /c glyphshow
306.240234 0.000000 m /s glyphshow
312.492188 0.000000 m /v glyphshow
grestore
1.000 setlinewidth
0 setlinecap
0.800 setgray
gsave
328.985625 252.112375 m
407.72 252.112375 l
409.053333 252.112375 409.72 252.779042 409.72 254.112375 c
409.72 297.128 l
409.72 298.461333 409.053333 299.128 407.72 299.128 c
328.985625 299.128 l
327.652292 299.128 326.985625 298.461333 326.985625 297.128 c
326.985625 254.112375 l
326.985625 252.779042 327.652292 252.112375 328.985625 252.112375 c
cl
gsave
1.000 setgray
fill
grestore
stroke
grestore
1.500 setlinewidth
1 setlinejoin
2 setlinecap
[] 0 setdash
0.337 0.932 0.970 setrgbcolor
gsave
330.985625 291.03425 m
350.985625 291.03425 l
stroke
grestore
0.000 setgray
/DejaVuSans findfont
10.000 scalefont
setfont
gsave
358.985625 287.534250 translate
0.000000 rotate
0.000000 0.000000 m /t glyphshow
3.920898 0.000000 m /i glyphshow
6.699219 0.000000 m /m glyphshow
16.440430 0.000000 m /e glyphshow
22.592773 0.000000 m /H glyphshow
30.112305 0.000000 m /e glyphshow
36.264648 0.000000 m /u glyphshow
42.602539 0.000000 m /r glyphshow
grestore
0.177 0.480 0.637 setrgbcolor
gsave
330.985625 276.362375 m
350.985625 276.362375 l
stroke
grestore
0.000 setgray
gsave
358.985625 272.862375 translate
0.000000 rotate
0.000000 0.000000 m /t glyphshow
3.920898 0.000000 m /i glyphshow
6.699219 0.000000 m /m glyphshow
16.440430 0.000000 m /e glyphshow
22.592773 0.000000 m /P glyphshow
28.623047 0.000000 m /L glyphshow
34.194336 0.000000 m /one glyphshow
grestore
0.137 0.172 0.777 setrgbcolor
gsave
330.985625 261.6905 m
350.985625 261.6905 l
stroke
grestore
0.000 setgray
gsave
358.985625 258.190500 translate
0.000000 rotate
0.000000 0.000000 m /t glyphshow
3.920898 0.000000 m /i glyphshow
6.699219 0.000000 m /m glyphshow
16.440430 0.000000 m /e glyphshow
22.592773 0.000000 m /P glyphshow
28.623047 0.000000 m /L glyphshow
34.194336 0.000000 m /two glyphshow
grestore
/DejaVuSans findfont
12.000 scalefont
setfont
gsave
84.509375 329.563000 translate
0.000000 rotate
0.000000 0.000000 m /E glyphshow
7.582031 0.000000 m /x glyphshow
14.683594 0.000000 m /e glyphshow
22.066406 0.000000 m /c glyphshow
28.664062 0.000000 m /u glyphshow
36.269531 0.000000 m /t glyphshow
40.974609 0.000000 m /i glyphshow
44.308594 0.000000 m /o glyphshow
51.650391 0.000000 m /n glyphshow
59.255859 0.000000 m /space glyphshow
63.070312 0.000000 m /t glyphshow
67.775391 0.000000 m /i glyphshow
71.109375 0.000000 m /m glyphshow
82.798828 0.000000 m /e glyphshow
90.181641 0.000000 m /space glyphshow
93.996094 0.000000 m /a glyphshow
101.349609 0.000000 m /s glyphshow
107.601562 0.000000 m /space glyphshow
111.416016 0.000000 m /a glyphshow
118.769531 0.000000 m /space glyphshow
122.583984 0.000000 m /f glyphshow
126.808594 0.000000 m /u glyphshow
134.414062 0.000000 m /n glyphshow
142.019531 0.000000 m /c glyphshow
148.617188 0.000000 m /t glyphshow
153.322266 0.000000 m /i glyphshow
156.656250 0.000000 m /o glyphshow
163.998047 0.000000 m /n glyphshow
171.603516 0.000000 m /space glyphshow
175.417969 0.000000 m /o glyphshow
182.759766 0.000000 m /f glyphshow
186.984375 0.000000 m /space glyphshow
190.798828 0.000000 m /p glyphshow
198.416016 0.000000 m /a glyphshow
205.769531 0.000000 m /r glyphshow
210.703125 0.000000 m /a glyphshow
218.056641 0.000000 m /m glyphshow
229.746094 0.000000 m /e glyphshow
237.128906 0.000000 m /t glyphshow
241.833984 0.000000 m /e glyphshow
249.216797 0.000000 m /r glyphshow
254.150391 0.000000 m /space glyphshow
257.964844 0.000000 m /m glyphshow
269.654297 0.000000 m /a glyphshow
277.007812 0.000000 m /x glyphshow
284.109375 0.000000 m /d glyphshow
grestore

end
showpage
